{
  "0-9": {
    "female": 2013548,
    "male": 2121276
  },
  "10-19": {
    "female": 2372125,
    "male": 2548669
  },
  "20-29": {
    "female": 3219887,
    "male": 3566210
  },
  "30-39": {
    "female": 3413411,
    "male": 3613439
  },
  "40-49": {
    "female": 4129679,
    "male": 4267738
  },
  "50-59": {
    "female": 4297890,
    "male": 4368908
  },
  "60-69": {
    "female": 3263188,
    "male": 3121885
  },
  "70-79": {
    "female": 1995103,
    "male": 1617877
  },
  "80-89": {
    "female": 1080587,
    "male": 575717
  },
  "90-99": {
    "female": 183096,
    "male": 53803
  },
  "100+": {
    "female": 15622,
    "male": 4969
  }
}